2019-02-06 15:26:16,416 [main] INFO sample - ########################Start of Create Case##################################
2019-02-06 15:26:18,962 [main] INFO sample - srikanth entered in the Edit box 
2019-02-06 15:26:19,435 [main] INFO sample - rules entered in the Edit box 
2019-02-06 15:26:20,761 [main] INFO sample - ? entered in the Edit box 
2019-02-06 15:26:23,768 [main] INFO sample - ---Click start my Distribution---
2019-02-06 15:26:33,429 [main] INFO sample - ---Enter Participant and Plan id---
2019-02-06 15:26:37,093 [main] INFO sample - ---Click the Participant fetched---
2019-02-06 15:26:40,909 [main] INFO sample - ---Select IRA Distribution---
2019-02-06 15:26:44,862 [main] INFO sample - ------- In QDRO Screen----
2019-02-06 15:26:50,997 [main] INFO sample - QDRO Text is displayed as expected. The Value is Are there pending plan benefits that may be payable under a Qualified Domestic Relations Order (QDRO)?
2019-02-06 15:26:51,513 [main] INFO sample - No Clicked as Expected
2019-02-06 15:26:53,024 [main] INFO sample - ------- In RMD Screen----
2019-02-06 15:26:56,232 [main] INFO sample - ------- In Spousal Download Screen----
2019-02-06 15:26:59,409 [main] INFO sample - ------- In Spousal Upload Screen----
2019-02-06 15:27:04,111 [main] INFO sample - Value matches as expected - 403(B) TDA VOLUNTARY  is 4546.81
2019-02-06 15:27:12,723 [main] INFO sample - OAMashupNavButtons_pyWorkPage_53 Button is Present & is clicked
2019-02-06 15:27:14,634 [main] INFO sample - ------- In Withdrawal Options Screen (Full/Partial)----
2019-02-06 15:27:18,165 [main] INFO sample - Full Clicked as Expected
2019-02-06 15:27:21,935 [main] INFO sample - FullWD Text is displayed as expected. The Value is <p>What do you want to do with your money ?
<br><br>
Distributions from  your plan may be paid in the form of annuity. 
<br><br>
If you would like an annuity distribution, please <br> contact our customer care concierge services at <br><b>1-800-348-6229</b>, option <b>1</b></p>
2019-02-06 15:27:22,472 [main] INFO sample - Next    Clicked as Expected
2019-02-06 15:27:27,090 [main] INFO sample - Next    Clicked as Expected
2019-02-06 15:27:28,232 [main] INFO sample - ------- In Withdrawal Options Screen (RollOver/Cash)----
2019-02-06 15:27:31,797 [main] INFO sample - Rollover My Money - to an Account Clicked as Expected
2019-02-06 15:27:32,123 [main] INFO sample - ------- In Withdrawal Options Screen (InternalRollOver/External RollOver)----
2019-02-06 15:27:35,694 [main] INFO sample - Rollover to a financial institution Clicked as Expected
2019-02-06 15:27:39,586 [main] INFO sample - Fidelity entered in the Edit box 
2019-02-06 15:27:40,117 [main] INFO sample - RothIRA entered in the Edit box 
2019-02-06 15:27:40,647 [main] INFO sample - 456456456456456 entered in the Edit box 
2019-02-06 15:27:41,151 [main] INFO sample - 123 arbor dr entered in the Edit box 
2019-02-06 15:27:41,639 [main] INFO sample - Northville entered in the Edit box 
2019-02-06 15:27:42,144 [main] INFO sample - MI entered in the Edit box 
2019-02-06 15:27:46,192 [main] INFO sample - 48167 entered in the Edit box 
2019-02-06 15:27:46,734 [main] INFO sample - Next    Clicked as Expected
2019-02-06 15:27:47,904 [main] INFO sample - ------- In Tax Election Screen----
2019-02-06 15:27:51,309 [main] INFO sample - Next    Clicked as Expected
2019-02-06 15:27:52,458 [main] INFO sample - ------- In Military Reservists Screen----
2019-02-06 15:27:55,915 [main] INFO sample - No Clicked as Expected
2019-02-06 15:27:56,680 [main] INFO sample - {
  "participantNumber": "481886257",
  "planNumber": "C31013",
  "participantFullName": "SALLY DOE",
  "participantFormattedFullName": "DOE , SALLY",
  "participantFormattedAge": 43.08,
  "participantEligibilityStatusCode": "00",
  "participantEligibilityStatusDescription": "Active And Eligible",
  "participantEligibilityStatusReasonCode": "N",
  "participantEligibilityStatusReasonDescription": "New Entrant",
  "participantEmploymentDate": "2001-11-01T00:00:00",
  "participantTerminationDate": null,
  "minimumDistributionSuppressIndicator": "1",
  "participantBirthDate": "1975-05-21T00:00:00",
  "participantDistributionRestrictionIndicator": "N",
  "participantTDALoanIndicator": "0",
  "participantDistributionRestrictionCode": null,
  "participantDistributionRestrictionDescription": null,
  "participantEmailAddress": null,
  "participantDivision": null,
  "lastLongTermDisabilityDepositDate": null,
  "planRothContributionAmount": null,
  "participantFederalTaxFilingStatusCode": null,
  "participantFederalTaxFilingStatusDescription": null,
  "participantWorkPhoneNumber": null,
  "personalPhoneNumber": null,
  "participantGenderCode": "F",
  "participantGenderDescription": "Female",
  "pre89Participant403BContributionBalance": null,
  "address": {
    "participantStateCode": "NE",
    "addressLocalityCode": null,
    "participantAddressFirstLineText": "ONEAMERICA SQUARE",
    "participantCityName": "MCCOOK",
    "participantZipCode": "69001",
    "participantAddressThirdLineText": null,
    "participantAddressSecondLineText": null
  }
}
2019-02-06 15:28:04,448 [main] INFO sample - ######## Employment Date :- values Matches. Value is Thu Nov 01 00:00:00 EST 2001
2019-02-06 15:28:19,071 [main] INFO sample - ######## participantFullName :- value Matches. Value is SALLY DOE
2019-02-06 15:28:19,079 [main] INFO sample - ######## Age :- values Matches. Value is 43.08
2019-02-06 15:28:19,087 [main] INFO sample - ######## State :- value Matches. Value is NE
2019-02-06 15:28:19,094 [main] INFO sample - ######## EligibilityStatusCode :- FAIL - App value is 30 but the Serv val is 00
2019-02-06 15:28:19,100 [main] INFO sample - ######## EmailAddress :- Value Matches. Value is null
2019-02-06 15:28:19,106 [main] INFO sample - ------- In Review Screen----
2019-02-06 15:28:22,599 [main] INFO sample - Next    Clicked as Expected
2019-02-06 15:28:23,891 [main] INFO sample - ------- In Terms & Conditions Screen----
2019-02-06 15:28:27,443 [main] INFO sample - Test12 entered in the Edit box 
2019-02-06 15:28:28,856 [main] INFO sample -  Clicked as Expected
2019-02-06 15:28:30,720 [main] INFO sample - Submit Clicked as Expected
2019-02-06 15:28:36,050 [main] INFO sample - Srikanth Narayanan Clicked as Expected
2019-02-06 15:28:39,822 [main] INFO sample - Log off Clicked as Expected
2019-02-06 15:28:40,438 [main] INFO sample - ########################Start of Sponsor Approve Case##################################
2019-02-06 15:28:41,440 [main] INFO sample - sponsor3 entered in the Edit box 
2019-02-06 15:28:41,908 [main] INFO sample - rules entered in the Edit box 
2019-02-06 15:28:43,153 [main] INFO sample - ? entered in the Edit box 
2019-02-06 15:28:46,162 [main] INFO sample - ------- Searching for Case and Begin----
2019-02-06 15:28:49,855 [main] INFO sample - D-5355? entered in the Edit box 
2019-02-06 15:28:53,768 [main] INFO sample - Begin Clicked as Expected
2019-02-06 15:28:54,087 [main] INFO sample - ------- Check for TermDate, if Blank enter Current Date and click on Approve---
2019-02-06 15:28:57,662 [main] INFO sample - Next    Clicked as Expected
2019-02-06 15:29:03,363 [main] INFO sample - ----Start of Sponsor Summary screen Validation----
2019-02-06 15:29:03,813 [main] INFO sample - {
  "participantNumber": "481886257",
  "planNumber": "C31013",
  "participantFullName": "SALLY DOE",
  "participantFormattedFullName": "DOE , SALLY",
  "participantFormattedAge": 43.08,
  "participantEligibilityStatusCode": "00",
  "participantEligibilityStatusDescription": "Active And Eligible",
  "participantEligibilityStatusReasonCode": "N",
  "participantEligibilityStatusReasonDescription": "New Entrant",
  "participantEmploymentDate": "2001-11-01T00:00:00",
  "participantTerminationDate": null,
  "minimumDistributionSuppressIndicator": "1",
  "participantBirthDate": "1975-05-21T00:00:00",
  "participantDistributionRestrictionIndicator": "N",
  "participantTDALoanIndicator": "0",
  "participantDistributionRestrictionCode": null,
  "participantDistributionRestrictionDescription": null,
  "participantEmailAddress": null,
  "participantDivision": null,
  "lastLongTermDisabilityDepositDate": null,
  "planRothContributionAmount": null,
  "participantFederalTaxFilingStatusCode": null,
  "participantFederalTaxFilingStatusDescription": null,
  "participantWorkPhoneNumber": null,
  "personalPhoneNumber": null,
  "participantGenderCode": "F",
  "participantGenderDescription": "Female",
  "pre89Participant403BContributionBalance": null,
  "address": {
    "participantStateCode": "NE",
    "addressLocalityCode": null,
    "participantAddressFirstLineText": "ONEAMERICA SQUARE",
    "participantCityName": "MCCOOK",
    "participantZipCode": "69001",
    "participantAddressThirdLineText": null,
    "participantAddressSecondLineText": null
  }
}
2019-02-06 15:29:05,096 [main] INFO sample - ######## Hire Date :- values Matches. Value is Thu Nov 01 00:00:00 EST 2001
2019-02-06 15:29:06,244 [main] INFO sample - ######## participantFullName :- value Matches. Value is SALLY DOE
2019-02-06 15:29:06,251 [main] INFO sample - ######## Age :- values Matches. Value is 43.08
2019-02-06 15:29:06,258 [main] INFO sample - ######## State :- value Matches. Value is NE
2019-02-06 15:29:06,265 [main] INFO sample - ######## EligibilityStatusCode :- FAIL - App value is 30 but the Serv val is 00
2019-02-06 15:29:06,273 [main] INFO sample - ######## EmailAddress :- Value Matches. Value is null
2019-02-06 15:29:06,281 [main] INFO sample - ----End of Sponsor Summary screen Validation----
2019-02-06 15:29:06,783 [main] INFO sample -  Clicked as Expected
2019-02-06 15:29:08,812 [main] INFO sample - Next    Clicked as Expected
2019-02-06 15:29:13,789 [main] INFO sample - Approve this Distribution Clicked as Expected
2019-02-06 15:29:17,630 [main] INFO sample - Submit Clicked as Expected
2019-02-06 15:29:21,201 [main] INFO sample - Approved Time : 02/06/2019 03:29:17 PM EST
2019-02-06 15:29:21,753 [main] INFO sample - Sponsor User 3 Clicked as Expected
2019-02-06 15:29:25,503 [main] INFO sample - Log off Clicked as Expected
