2019-02-04 11:55:40,996 [main] INFO sample - ########################Start of Create Case##################################
2019-02-04 11:55:43,222 [main] INFO sample - srikanth entered in the Edit box 
2019-02-04 11:55:43,686 [main] INFO sample - rules entered in the Edit box 
2019-02-04 11:55:44,907 [main] INFO sample - ? entered in the Edit box 
2019-02-04 11:55:49,912 [main] INFO sample - ---Click start my Distribution---
2019-02-04 11:56:04,106 [main] INFO sample - ---Enter Participant and Plan id---
2019-02-04 11:56:09,776 [main] INFO sample - ---Click the Participant fetched---
2019-02-04 11:56:15,611 [main] INFO sample - ---Select IRA Distribution---
2019-02-04 11:56:21,592 [main] INFO sample - ------- In QDRO Screen----
2019-02-04 11:56:29,743 [main] INFO sample - Are there pending plan benefits that may be payable under a Qualified Domestic Relations Order (QDRO)? captured from the Element
2019-02-04 11:56:29,749 [main] INFO sample - QDRO Text is displayed as expected. The Value is Are there pending plan benefits that may be payable under a Qualified Domestic Relations Order (QDRO)?
2019-02-04 11:56:30,227 [main] INFO sample - No Clicked as Expected
2019-02-04 11:56:31,332 [main] INFO sample - ------- In RMD Screen----
2019-02-04 11:56:36,526 [main] INFO sample - ------- In Spousal Download Screen----
2019-02-04 11:56:42,112 [main] INFO sample - Next    Clicked as Expected
2019-02-04 11:56:43,269 [main] INFO sample - ------- In Spousal Upload Screen----
2019-02-04 11:57:07,794 [main] INFO sample - Next    Clicked as Expected
2019-02-04 11:57:12,235 [main] INFO sample - Value matches as expected - Employer  is 41758.81
2019-02-04 11:57:12,243 [main] INFO sample - Value matches as expected - Employer PS/MP  is 2.72
2019-02-04 11:57:12,247 [main] INFO sample - Value matches as expected - 401(k) Deferral  is 217819.13
2019-02-04 11:57:12,254 [main] INFO sample - Value matches as expected - Employer Match  is 51602.85
2019-02-04 11:57:12,258 [main] INFO sample - Value matches as expected - Roth Deferral  is 118991.06
2019-02-04 11:57:12,262 [main] INFO sample - Value matches as expected - SS Non-Elective  is 51519.82
2019-02-04 11:57:24,804 [main] INFO sample - OAMashupNavButtons_pyWorkPage_53 Button is Present & is clicked
2019-02-04 11:57:26,439 [main] INFO sample - ------- In Withdrawal Options Screen (Full/Partial)----
2019-02-04 11:57:31,955 [main] INFO sample - Full Clicked as Expected
