2019-01-25 15:12:24,501 [main] INFO sample - ########################Start of Create Case##################################
2019-01-25 15:12:27,670 [main] INFO sample - srikanth entered in the Edit box 
2019-01-25 15:12:28,625 [main] INFO sample - rules entered in the Edit box 
2019-01-25 15:12:30,249 [main] INFO sample - ? entered in the Edit box 
2019-01-25 15:12:33,264 [main] INFO sample - ---Click start my Distribution---
2019-01-25 15:12:44,282 [main] INFO sample - ---Enter Participant and Plan id---
2019-01-25 15:12:48,887 [main] INFO sample - ---Click the Participant fetched---
2019-01-25 15:12:52,498 [main] INFO sample - ########################Start of Create Case##################################
